{
    "cs": {
        "indicator": {
            "label": "plocha domény AGB",
            "description": "Plocha domény nadzemní biomasy stromů."
        },
        "state or change": {
            "label": "state variable",
            "description": "State variable."
        },
        "unit": {
            "label": "ha",
            "description": "Hektar."
        },
        "local densities": [
            {
                "object type label": "core",
                "object type description": "Plot-level contribution to local density for estimation.",
                "object label": "střed / okolí plochy",
                "object description": "Střed nebo blízké okolí inventarizační plochy.",
                "label": "binární proměnná",
                "description": "Binární proměnná (1 uvnitř domény, 0 vně).",
                "version": {
                    "label": "neuvedena",
                    "description": "Informace o korekci dat na základě novější inventarizace není dostupná."
                },
                "definition variant": {
                    "label": "národní definice",
                    "description": "Národní definice domény zásoby dříví."
                },
                "area domain": {
                    "label": "přístupný a schůdný les",
                    "description": "Území přístupného a schůdného lesa."
                },
                "population": {
                    "label": null,
                    "description": null
                },
                "use_negative": false
            }
        ]
    },
    "en": {
        "pf_label": "domain_agb", 
        "indicator": {
            "label": "area of AGB domain",
            "description": "Area of the domain of above-ground tree biomass."
        },
        "state or change": {
            "label": "state variable",
            "description": "State variable."
        },
        "unit": {
            "label": "ha",
            "description": "Hectare."
        },
        "local densities": [
            {
                "object type label": "core",
                "object type description": "Plot-level contribution to local density for estimation.",
                "object label": "plot centre or surrounding",
                "object description": "The plot centre or its surrounding.",
                "label": "binary variable",
                "description": "Binary variable (1 in domain, 0 otherwise).",
                "version": {
                    "label": "unknown",
                    "description": "Information about data correction based on a newer NFI cycle is not available."
                },
                "definition variant": {
                    "label": "national definition",
                    "description": "National definition of above-ground biomass domain."
                },
                "area domain": {
                    "label": "accessible forest",
                    "description": "Accessible forest."
                },
                "population": {
                    "label": null,
                    "description": null
                },
                "use_negative": false
            }
        ]
    }
}