{
    "cs": {
        "indicator": {
            "label": "max_plot_radius",
            "description": "Nezamýšleno pro odhady."
        },
        "state or change": {
            "label": "state variable",
            "description": "State variable."
        },
        "unit": {
            "label": "m",
            "description": "Metr."
        },
        "local densities": [
            {
                "object type label": "core",
                "object type description": "Plot-level contribution to local density for estimation.",
                "object label": "střed / okolí plochy",
                "object description": "Střed nebo blízké okolí inventarizační plochy.",
                "label": "binární proměnná",
                "description": "Binární proměnná  (1 pro les, 0 pro ostatní).",
                "version": {
                    "label": "neuvedena",
                    "description": "Informace o korekci dat na základě novější inventarizace není dostupná."
                },
                "definition variant": {
                    "label": "FAO FRA nebo nejbližší národní",
                    "description": "Definice lesa podle FAO FRA nebo podle nejbližší dostupné národní definice."
                },
                "area domain": {
                    "label": "celé území strata",
                    "description": "Celé území výběrového strata."
                },
                "population": {
                    "label": null,
                    "description": null
                },
                "use_negative": false
            }
        ]
    },
    "en": {
        "pf_label": "max_plot_radius", 
        "indicator": {
            "label": "max_plot_radius",
            "description": "Not intended for estimates."
        },
        "state or change": {
            "label": "state variable",
            "description": "State variable."
        },
        "unit": {
            "label": "m",
            "description": "Metre."
        },
        "local densities": [
            {
                "object type label": "core",
                "object type description": "Plot-level contribution to local density for estimation.",
                "object label": "plot centre or surrounding",
                "object description": "The plot centre or its surrounding.",
                "label": "binary variable",
                "description": "Binary variable (1 for  forest, 0 for other lands)",
                "version": {
                    "label": "unknown",
                    "description": "Information about data correction based on a newer NFI cycle is not available."
                },
                "definition variant": {
                    "label": "FAO FRA or closest national",
                    "description": "Forest according to the FAO FRA or according to the national definition closest to FAO FRA."
                },
                "area domain": {
                    "label": "whole stratum",
                    "description": "The whole area of sampling stratum."
                },
                "population": {
                    "label": null,
                    "description": null
                },
                "use_negative": false
            }
        ]
    }
}