{
    "cs": {
        "indicator": {
            "label": "přírůst dříví",
            "description": "Přírůst dříví."
        },
        "state or change": {
            "label": "dynamic variable",
            "description": "Dynamic variable."
        },
        "unit": {
            "label": "m3 s k./rok",
            "description": "Metr krychlový s kůrou za rok."
        },
        "local densities": [
            {
                "object type label": "core",
                "object type description": "Plot-level contribution to local density for estimation.",
                "object label": "kmen (strom)",
                "object description": "Kmen (strom) zaregistrovaný na inventarizační ploše.",
                "label": "přírůst objemu dříví",
                "description": "Přírůst objemu dříví.",
                "version": {
                    "label": "neuvedena",
                    "description": "Informace o korekci dat na základě novější inventarizace není dostupná."
                },
                "definition variant": {
                    "label": "čistý přírůst hroubí kmene a větví, národní limity d13",
                    "description": "Čistý přírůst objemu kmene a větví od 7 cm tloušťky, viz definice č. 5 v tabulce 2 (Gschwantner et al, 2019). Odpovídá hrubému přírůstu po odečtění mortality a vytěžených nevyklizených kmenů. Minimální výčetní tloušťka zahrnutých kmenů není stanovena jednotně."
                },
                "area domain": {
                    "label": "přístupný a schůdný les",
                    "description": "Území přístupného a schůdného lesa."
                },
                "population": {
                    "label": "živé kmeny splňující limit d13, stojící i ležící.",
                    "description": "Živé kmeny od minima výčetní tloušťky, bez ohledu na to, zda jsou stojící nebo ležící."
                },
                "use_negative": false
            }
        ]
    },
    "en": {
        "pf_label": "nai_vol_pathfinder", 
        "indicator": {
            "label": "volume increment",
            "description": "Volume increment."
        },
        "state or change": {
            "label": "dynamic variable",
            "description": "Dynamic variable."
        },
        "unit": {
            "label": "m3 o. b./year",
            "description": "Cubic meter over bark per year."
        },
        "local densities": [
            {
                "object type label": "core",
                "object type description": "Plot-level contribution to local density for estimation.",
                "object label": "stem (tree)",
                "object description": "Stem (tree) registred on a sample plot.",
                "label": "increment of wood volume",
                "description": "Increment wood volume.",
                "version": {
                    "label": "unknown",
                    "description": "Information about data correction based on a newer NFI cycle is not available."
                },
                "definition variant": {
                    "label": "net increment of stem volume and branches down to 7 cm o. b., national DBH limits",
                    "description": "Net increment of stem volume and branches down to 7 cm o. b., see definition No 5 in Table 2 (Gschwantner et al, 2019). Corresponds to gross increment minus volume of mortality and cuts left in the forest. Country specific DBH thresholds are used."
                },
                "area domain": {
                    "label": "accessible forest",
                    "description": "Accessible forest."
                },
                "population": {
                    "label": "live stems above DBH threshold, standing or lying",
                    "description": "Live stems above DBH threshold, no matter if standing or lying."
                },
                "use_negative": false
            }
        ]
    }
}