{
    "cs": {
        "indicator": {
            "label": "zásoba dříví",
            "description": "Zásoba dříví."
        },
        "state or change": {
            "label": "change variable",
            "description": "Change variable."
        },
        "unit": {
            "label": "m3 s k./rok",
            "description": "Metr krychlový s kůrou za rok."
        },
        "local densities": [
            {
                "object type label": "core",
                "object type description": "Plot-level contribution to local density for estimation.",
                "object label": "kmen (strom)",
                "object description": "Kmen (strom) zaregistrovaný na inventarizační ploše.",
                "label": "objem dříví",
                "description": "Objem dříví.",
                "version": {
                    "label": "neuvedena",
                    "description": "Informace o korekci dat na základě novější inventarizace není dostupná."
                },
                "definition variant": {
                    "label": "harmonizovaný objem, včetně vršku, bez větví",
                    "description": "Harmonizovaná definice č. 2, Tabulka 2 (Gschwantner a kol., 2019)."
                },
                "area domain": {
                    "label": "přístupný a schůdný les",
                    "description": "Území přístupného a schůdného lesa."
                },
                "population": {
                    "label": "živé kmeny od 1.3 m výšky",
                    "description": "Živé kmeny od výšky 1.3 m (výčetní tloušťka od 0 cm)."
                },
                "use_negative": false
            }
        ]
    },
    "en": {
        "pf_label": "vol_change", 
        "indicator": {
            "label": "growing stock",
            "description": "Growing stock."
        },
        "state or change": {
            "label": "change variable",
            "description": "Change variable."
        },
        "unit": {
            "label": "m3 o. b./year",
            "description": "Cubic meter over bark per year."
        },
        "local densities": [
            {
                "object type label": "core",
                "object type description": "Plot-level contribution to local density for estimation.",
                "object label": "stem (tree)",
                "object description": "Stem (tree) registred on a sample plot.",
                "label": "wood volume",
                "description": "Wood volume.",
                "version": {
                    "label": "unknown",
                    "description": "Information about data correction based on a newer NFI cycle is not available."
                },
                "definition variant": {
                    "label": "harmonised volume, including stem top, without branches",
                    "description": "Harmonised definition No 2 in Table 2 (Gschwantner et al, 2019)."
                },
                "area domain": {
                    "label": "accessible forest",
                    "description": "Accessible forest."
                },
                "population": {
                    "label": "live stems, min. 1.3 m height",
                    "description": "Live stems with minimum height of 1.3 m."
                },
                "use_negative": false
            }
        ]
    }
}