country;strata_set;label;comment
CZ;CZ-STS-SNIL1;Strata set corresponding to the Czech NFI1 sampling grid.;This strata set was used only in the Czech NFI1(2001-2004) and NFI2(2011-2014).
CZ;CZ-STS-SNIL2;Strata set corresponding to the Czech NFI2 sampling grid.;This strata set was introduced in NFI2 (2011-2015) and has been in use since that time.
